%YAML 1.1
%TAG !u! tag:unity3d.com,2011:
--- !u!74 &7400000
AnimationClip:
  m_ObjectHideFlags: 0
  m_CorrespondingSourceObject: {fileID: 0}
  m_PrefabInstance: {fileID: 0}
  m_PrefabAsset: {fileID: 0}
  m_Name: Salto
  serializedVersion: 6
  m_Legacy: 0
  m_Compressed: 0
  m_UseHighQualityCurve: 1
  m_RotationCurves: []
  m_CompressedRotationCurves: []
  m_EulerCurves: []
  m_PositionCurves: []
  m_ScaleCurves: []
  m_FloatCurves: []
  m_PPtrCurves:
  - curve:
    - time: 0
      value: {fileID: 21300000, guid: d7295379ad49e4d46bb9f023d77223fb, type: 3}
    - time: 0.083333336
      value: {fileID: 21300000, guid: 1427e6010cf994e43b03002f72561f1f, type: 3}
    - time: 0.16666667
      value: {fileID: 21300000, guid: 3a4675bee38ddf543b24e4ed79025cee, type: 3}
    - time: 0.25
      value: {fileID: 21300000, guid: 88756bd9f067c894d960fddc76bdef40, type: 3}
    - time: 0.33333334
      value: {fileID: 21300000, guid: dc20ed40b51ede0478d8e1d1862cdcce, type: 3}
    - time: 0.41666666
      value: {fileID: 21300000, guid: e9659de56b468b94f8def088c3cd04bd, type: 3}
    - time: 0.5
      value: {fileID: 21300000, guid: 961a032683e130e4f9beaa5778e6bb90, type: 3}
    - time: 0.5833333
      value: {fileID: 21300000, guid: aeaf949f6653c1647b9d60da1b988814, type: 3}
    - time: 0.6666667
      value: {fileID: 21300000, guid: ffb0ef6274d32334e8c6c81f3770eae1, type: 3}
    attribute: m_Sprite
    path: 
    classID: 212
    script: {fileID: 0}
  m_SampleRate: 12
  m_WrapMode: 0
  m_Bounds:
    m_Center: {x: 0, y: 0, z: 0}
    m_Extent: {x: 0, y: 0, z: 0}
  m_ClipBindingConstant:
    genericBindings:
    - serializedVersion: 2
      path: 0
      attribute: 0
      script: {fileID: 0}
      typeID: 212
      customType: 23
      isPPtrCurve: 1
    pptrCurveMapping:
    - {fileID: 21300000, guid: d7295379ad49e4d46bb9f023d77223fb, type: 3}
    - {fileID: 21300000, guid: 1427e6010cf994e43b03002f72561f1f, type: 3}
    - {fileID: 21300000, guid: 3a4675bee38ddf543b24e4ed79025cee, type: 3}
    - {fileID: 21300000, guid: 88756bd9f067c894d960fddc76bdef40, type: 3}
    - {fileID: 21300000, guid: dc20ed40b51ede0478d8e1d1862cdcce, type: 3}
    - {fileID: 21300000, guid: e9659de56b468b94f8def088c3cd04bd, type: 3}
    - {fileID: 21300000, guid: 961a032683e130e4f9beaa5778e6bb90, type: 3}
    - {fileID: 21300000, guid: aeaf949f6653c1647b9d60da1b988814, type: 3}
    - {fileID: 21300000, guid: ffb0ef6274d32334e8c6c81f3770eae1, type: 3}
  m_AnimationClipSettings:
    serializedVersion: 2
    m_AdditiveReferencePoseClip: {fileID: 0}
    m_AdditiveReferencePoseTime: 0
    m_StartTime: 0
    m_StopTime: 0.75
    m_OrientationOffsetY: 0
    m_Level: 0
    m_CycleOffset: 0
    m_HasAdditiveReferencePose: 0
    m_LoopTime: 1
    m_LoopBlend: 0
    m_LoopBlendOrientation: 0
    m_LoopBlendPositionY: 0
    m_LoopBlendPositionXZ: 0
    m_KeepOriginalOrientation: 0
    m_KeepOriginalPositionY: 1
    m_KeepOriginalPositionXZ: 0
    m_HeightFromFeet: 0
    m_Mirror: 0
  m_EditorCurves: []
  m_EulerEditorCurves: []
  m_HasGenericRootTransform: 0
  m_HasMotionFloatCurves: 0
  m_Events: []
